{
    "output": {
        "intents": [
            {
                "intent": "General_Conversation-Greetings",
                "confidence": 0.96069655418396
            }
        ],
        "entities": [],
        "generic": [
            {
                "response_type": "text",
                "text": "Hello, I am the bank's Virtual Agent."
            },
            {
                "title": "I can help you with a number of banking tasks:",
                "options": [
                    {
                        "label": "Making a credit card payment",
                        "value": {
                            "input": {
                                "text": "I want to make a credit card payment"
                            }
                        }
                    },
                    {
                        "label": "Booking an appointment with a banker",
                        "value": {
                            "input": {
                                "text": "I want to book an appointment with a banker"
                            }
                        }
                    },
                    {
                        "label": "Choosing a credit card",
                        "value": {
                            "input": {
                                "text": "Help me choose a credit card"
                            }
                        }
                    }
                ],
                "response_type": "option"
            }
        ]
    }
}